<?xml version="1.0" encoding="UTF-8" standalone="no"?>
<!-- Created with Inkscape (http://www.inkscape.org/) -->

<svg
   version="1.1"
   id="svg951"
   xml:space="preserve"
   width="769.1333"
   height="769.14667"
   xmlns:inkscape="http://www.inkscape.org/namespaces/inkscape"
   xmlns:sodipodi="http://sodipodi.sourceforge.net/DTD/sodipodi-0.dtd"
   xmlns="http://www.w3.org/2000/svg"
   xmlns:svg="http://www.w3.org/2000/svg"><defs
     id="defs955" /><sodipodi:namedview
     id="namedview953"
     pagecolor="#ffffff"
     bordercolor="#666666"
     borderopacity="1.0"
     inkscape:showpageshadow="2"
     inkscape:pageopacity="0.0"
     inkscape:pagecheckerboard="0"
     inkscape:deskcolor="#d1d1d1" /><inkscape:clipboard
     min="1742.7733,2238.0934"
     max="2511.9066,3007.2401"
     geom-min="1742.7733,2238.0934"
     geom-max="2511.9066,3007.2401" /><g
     id="g957"
     transform="matrix(0.13333333,0,0,-0.13333333,-1742.7733,3054.5733)"><path
       d="m 18839.3,20025 c 0,-1592.9 -1291.3,-2884.3 -2884.3,-2884.3 -1592.9,0 -2884.2,1291.4 -2884.2,2884.3 0,1593 1291.3,2884.3 2884.2,2884.3 1593,0 2884.3,-1291.3 2884.3,-2884.3"
       style="fill:#2f3031;fill-opacity:1;fill-rule:nonzero;stroke:none"
       id="path338" /><path
       d="m 15952.1,19006.3 c 821.7,0 1570.4,-95.9 2133.8,-253.1 222.4,371.9 350.4,806.9 350.4,1271.8 0,1370.4 -1110.9,2481.3 -2481.3,2481.3 -1370.3,0 -2481.2,-1110.9 -2481.2,-2481.3 0,-464.3 127.6,-898.8 349.6,-1270.4 562.8,156.4 1309.5,251.7 2128.7,251.7"
       style="fill:#ffffff;fill-opacity:1;fill-rule:nonzero;stroke:none"
       id="path340" /><path
       d="m 14199.1,18127.4 56.8,68 c 39.3,-32.5 80.5,-53.1 130.4,-53.1 39.3,0 63,15.6 63,41.2 v 1.3 c 0,24.3 -15,36.8 -88,55.5 -87.9,22.5 -144.7,46.8 -144.7,133.5 v 1.3 c 0,79.2 63.6,131.6 152.9,131.6 63.6,0 117.9,-20 162.2,-55.5 l -49.9,-72.4 c -38.7,26.8 -76.8,43.1 -113.6,43.1 -36.8,0 -56.1,-16.9 -56.1,-38.1 v -1.3 c 0,-28.7 18.7,-38 94.2,-57.4 88.6,-23 138.5,-54.9 138.5,-131 v -1.2 c 0,-86.8 -66.2,-135.4 -160.4,-135.4 -66.1,0 -132.9,23.1 -185.3,69.9"
       style="fill:#ffffff;fill-opacity:1;fill-rule:nonzero;stroke:none"
       id="path342" /><path
       d="m 14628.4,18500.5 h 96.1 v -172.9 h 177.2 v 172.9 h 96.1 v -436.8 h -96.1 v 175.3 h -177.2 v -175.3 h -96.1 v 436.8"
       style="fill:#ffffff;fill-opacity:1;fill-rule:nonzero;stroke:none"
       id="path344" /><path
       d="m 15102.7,18500.5 h 329.4 v -85.5 h -234 v -88.6 h 205.9 v -85.5 h -205.9 v -91.7 h 237.1 v -85.5 h -332.5 v 436.8"
       style="fill:#ffffff;fill-opacity:1;fill-rule:nonzero;stroke:none"
       id="path346" /><path
       d="m 15520.7,18500.5 h 96.1 v -349.4 h 217.8 v -87.4 h -313.9 v 436.8"
       style="fill:#ffffff;fill-opacity:1;fill-rule:nonzero;stroke:none"
       id="path348" /><path
       d="m 15907,18500.5 h 96.1 v -349.4 h 217.7 v -87.4 H 15907 v 436.8"
       style="fill:#ffffff;fill-opacity:1;fill-rule:nonzero;stroke:none"
       id="path350" /><path
       d="m 16293.2,18500.5 h 332.6 v -87.4 h -236.5 v -92.9 h 208.4 v -87.4 h -208.4 v -169.1 h -96.1 v 436.8"
       style="fill:#ffffff;fill-opacity:1;fill-rule:nonzero;stroke:none"
       id="path352" /><path
       d="m 16706.9,18500.5 h 96.1 v -436.8 h -96.1 v 436.8"
       style="fill:#ffffff;fill-opacity:1;fill-rule:nonzero;stroke:none"
       id="path354" /><path
       d="m 16882.3,18127.4 56.8,68 c 39.3,-32.5 80.5,-53.1 130.4,-53.1 39.3,0 63,15.6 63,41.2 v 1.3 c 0,24.3 -15,36.8 -88,55.5 -88,22.5 -144.7,46.8 -144.7,133.5 v 1.3 c 0,79.2 63.6,131.6 152.8,131.6 63.7,0 117.9,-20 162.2,-55.5 l -49.9,-72.4 c -38.6,26.8 -76.7,43.1 -113.5,43.1 -36.8,0 -56.2,-16.9 -56.2,-38.1 v -1.3 c 0,-28.7 18.7,-38 94.2,-57.4 88.6,-23 138.5,-54.9 138.5,-131 v -1.2 c 0,-86.8 -66.1,-135.4 -160.3,-135.4 -66.1,0 -132.9,23.1 -185.3,69.9"
       style="fill:#ffffff;fill-opacity:1;fill-rule:nonzero;stroke:none"
       id="path356" /><path
       d="m 17311.6,18500.5 h 96.1 v -172.9 h 177.2 v 172.9 h 96.1 v -436.8 h -96.1 v 175.3 h -177.2 v -175.3 h -96.1 v 436.8"
       style="fill:#ffffff;fill-opacity:1;fill-rule:nonzero;stroke:none"
       id="path358" /><path
       d="m 15637,20004.7 c -1.2,3.8 -2,5.5 -2.3,7.3 -2.6,20.6 -12.5,37.5 -25.9,52.9 -2.1,2.4 -3.5,8.6 -2,10.2 24.9,27.7 38.6,62 55.3,94.5 6.8,12.9 14.1,25.8 23,37.4 12.1,15.6 29.6,21.6 49.1,23.3 32.7,2.8 64.8,-1.4 96.9,-6.4 10.8,-1.7 21.7,-2.9 32.6,-3.5 2.8,-0.2 5.7,2.6 8.5,4.1 -2.2,2.3 -4,6 -6.6,6.7 -48.1,13.7 -96.5,25.8 -147.2,20.7 -36.9,-3.6 -61.5,-26.1 -79.2,-56.5 -17.7,-30.3 -34,-61.3 -50.9,-92 -6.6,-11.8 -6.6,-11.7 -17.5,-3.7 -11.6,8.6 -23.3,17.1 -35.1,25.4 -4.3,3.1 -6.1,5.7 -2.6,11 30.5,44.9 61.2,89.7 90.8,135.3 11.6,17.9 27.8,26.7 47.4,31.8 32.6,8.5 65.9,7 98.9,5.2 34.9,-1.8 154.8,-7.6 179.8,-6.7 2.8,0.1 5.5,1.2 8.3,1.8 0.2,1 0.6,2 0.9,3.1 -3.6,1.1 -7,3 -10.6,3.4 -20.2,1.9 -40.4,3.2 -60.5,5.1 -51.3,4.9 -102.4,10.4 -153.6,14.7 -15.7,1.4 -31.6,0.5 -47.3,-0.3 -45,-2.4 -79.7,-22.2 -105.4,-60 -24.4,-35.9 -51.5,-69.9 -77.1,-104.9 -5.6,-7.8 -10.1,-9.5 -17.2,-2 -7.7,8.2 -16.1,15.7 -24.2,23.6 -4,3.7 -4.5,7.2 0,11.2 44.4,39.4 74.1,90.2 107.7,137.9 10.4,14.8 20,30 30.5,44.6 18.2,25.5 43.7,34.8 73.7,28.5 37.7,-7.9 75,-17.9 112.5,-26.8 9,-2.2 18,-3.6 27.5,-5.4 1.7,11.3 -6.2,12.7 -12,14.4 -41.7,12.8 -83.5,25.9 -125.7,37.1 -12.9,3.5 -27.4,2.9 -41,1.8 -19.5,-1.6 -36.9,-10.1 -50.2,-24.4 -24.2,-26.1 -111.7,-128.1 -132.3,-152 -4.2,-5 -9.4,-9.2 -14.8,-14.3 -5.2,12.9 -10.3,24.5 -14.6,36.5 -0.6,2 1.7,6.1 3.7,7.8 52.3,41.2 91.8,94.4 137.1,142.2 21.9,23.1 44.4,45.7 68.5,66.3 20.5,17.5 45.4,25.3 73,18.5 27.4,-6.8 54.7,-13.8 82,-21 10.3,-2.7 20.5,-6.1 30.8,-9.2 0.7,1.1 1.4,2.3 2.2,3.4 -2.7,2.5 -4.9,5.8 -8,7.3 -38.7,19.5 -79.3,33.4 -122.3,39.7 -31.9,4.6 -58.6,-9.5 -83.5,-26.6 -42.2,-28.9 -171.3,-156.5 -200.7,-183.4 -11.3,-10.4 -14.3,-9.1 -19.1,5.8 -0.1,0.7 -0.3,1.3 -0.5,1.9 -5.9,19.9 -4.6,18.4 10.8,31.7 26.4,23 144.4,150.2 178.5,189.2 41.3,47 91.5,57.9 150.3,38.6 27.1,-8.9 55.1,-15.2 82.8,-22.2 3.2,-0.8 7.2,1.6 10.9,2.6 -2.8,2.3 -5.2,5.6 -8.3,6.8 -35.5,13 -70.6,28 -107.1,38.1 -54.5,15.2 -105.3,5.7 -146.2,-35.5 -39,-39.3 -154.3,-160.3 -174.5,-180.1 -2.2,-2.1 -5,-3.5 -10.8,-7.5 -0.1,23 -0.1,42.7 -0.3,62.5 -0.2,19.9 7.4,35.5 21.4,50.2 43,44.8 65.5,100.6 83.6,159 19.5,62.9 51.4,117.7 105.2,158.9 71,54.5 134.5,116.8 185.6,190.8 47.4,68.6 111.2,116.5 186.8,149 52.8,22.7 325.9,134.1 402.4,182.2 28.3,17.8 93.2,63.3 95.2,67.2 -4.4,0.9 -9.6,3.9 -13,2.5 -19,-7.8 -38.1,-15.6 -56.2,-25.3 -91.1,-48.6 -306.7,-139.1 -319.8,-143.6 -46.8,-15.9 -93.3,-32.7 -140.3,-47.9 -19.5,-6.3 -40,-9.3 -60.1,-13.6 -3.3,-0.7 -6.9,-0.3 -13.2,-0.5 12.5,12 22.8,22.6 34,32.3 6.7,5.8 15.1,9.7 22.2,15.2 2.9,2.3 4.1,6.8 6.1,10.3 -3.8,-0.2 -8,0.5 -11.3,-0.8 -14.7,-5.6 -29.1,-11.9 -43.8,-17.7 -3.7,-1.4 -7.8,-1.7 -11.8,-2.6 -0.8,0.9 -1.6,1.7 -2.4,2.5 5.7,7.4 49.2,45.4 66.3,55.4 20.1,11.8 41.4,21.8 62,32.8 3.5,1.8 6.4,4.7 9.5,7.1 -0.4,1.3 -0.9,2.6 -1.3,3.9 -39.3,-7 -78.6,-14 -117.9,-21.1 -0.4,1 -0.7,1.9 -1.1,2.9 2.8,1.4 177.2,72.1 263.7,100.5 72.9,23.9 142,56.9 211.8,88.2 33.4,15 67.8,27.9 101,43.4 44,20.5 87.6,42 130.7,64.3 28.4,14.8 55.8,31.8 83.6,47.9 2.5,1.5 4.4,4.1 6.6,6.2 -0.3,1.1 -0.6,2.1 -0.8,3.2 -5.3,-0.6 -10.7,-0.2 -15.6,-1.8 -12.9,-4.1 -25.6,-8.6 -38.1,-13.8 -65.7,-26.9 -542.7,-213.4 -604.6,-232.9 -53.3,-16.7 -168,-43.1 -171.3,-41.9 5.2,2 10.3,4.1 15.6,6 90.7,32.7 181.5,65.3 272.3,98 79.8,28.9 161.1,54.4 239.1,87.6 97.2,41.4 194.7,82.8 287,135 39.1,22.1 80,41.3 119.3,63.2 37.3,20.9 73.5,43.6 110.1,65.7 2.7,1.7 4.1,5.5 6.1,8.4 -3.6,0.8 -7.8,3.3 -10.8,2.2 -15.4,-5.3 -31,-10.8 -45.8,-17.7 -65.5,-30.7 -131.2,-60.9 -196,-93.1 -57.8,-28.8 -118.4,-50.5 -179.1,-71.5 -93.9,-32.6 -189,-61.4 -282.8,-94.3 -110.3,-38.7 -223.4,-67.5 -335.5,-100.1 -134.1,-38.9 -267.1,-81.1 -395.7,-136.2 -105.8,-45.4 -303.9,-170.3 -305.8,-171.8 -60.3,-43.2 -359.7,-257.3 -424.9,-562.2 -20.7,-96.6 -36.4,-191.5 -15.4,-289 6.5,-29.8 17.4,-58.6 26.4,-87.7 25.8,-82.9 173.7,-329 211.3,-372.7 35.8,-41.5 74.8,-79.3 116.3,-115.3 138.4,-120.3 331.7,-194.9 391.3,-214.5 114.9,-37.8 232.5,-47.9 352.6,-38.4 123.1,9.9 242.9,33.3 356.3,83.1 116.9,51.4 215.7,127.5 295.1,227.4 42,52.9 79.5,109.2 121.1,162.3 50.3,64.3 243.8,290.6 292.2,337 54.9,52.8 111.1,104.9 178.3,142.3 28.3,15.8 58.3,28.5 87.6,42.3 9.7,4.7 11.1,9.5 2.4,15.8 -6,4.3 -13.4,7.2 -20.5,9 -122.6,30.5 -246.9,37.3 -372.5,27.4 -49.6,-4 -98.4,-12.2 -145.3,-28.7 -18.4,-6.4 -35.7,-16.2 -52.8,-25.7 -25.2,-14 -35.7,-39.8 -48,-63.7 -26.9,-52.3 -43,-108.7 -62.5,-163.8 -21.1,-59.4 -42.1,-118.9 -66.7,-176.9 -44.6,-105.6 -124.2,-176.4 -228.8,-220.3 -70.3,-29.5 -215.4,-62.4 -351.7,60.1 -10.2,9.2 -24.1,13.4 -36,20.3 -5.9,3.4 -6.3,7.4 -1.6,12.3 27.6,28.6 39.9,64.8 49.8,102 4,14.9 14.3,21.2 27.9,24.6 29,7.2 57.4,3.3 85.9,-3.3 4.5,-1.1 13.6,-0.6 13.9,0.8 2.1,8.3 -6.2,8.2 -11,9.9 -29.6,10.8 -60,13.8 -91.1,8.6 -21.6,-3.5 -36.8,-15.2 -46.5,-35 -14.8,-30.3 -29.4,-60.8 -56,-83.4 -6.6,-5.7 -10.6,-5.9 -16.9,-0.5 -21.7,18.5 -22.2,18.7 -5,40.9 20.9,27 46.8,109.4 49.7,118.9 3.9,12.3 12.3,20.4 25,20.9 26.7,1 53.3,1.7 79.9,0.8 28.6,-1 57.1,-4.4 85.7,-6.1 7.6,-0.4 19.4,-3.5 20.4,8.3 0.8,10.8 -11,10 -18.3,11.3 -49.2,8.3 -98.6,14.9 -148.7,13.8 -48.5,-1.1 -70.2,-16 -85.8,-62.3 -10.3,-30.7 -24.4,-58.7 -45.5,-83.2 -2.1,-2.3 -4.1,-4.7 -7.6,-8.7 v 0"
       style="fill:#2f3031;fill-opacity:1;fill-rule:nonzero;stroke:none"
       id="path360" /><path
       d="m 15439.2,21167 c -50.6,-48.6 -31.9,-119.8 29.4,-140.1 32.8,-10.8 63.7,-9.3 89.3,16.8 27.6,28.1 40.7,61.8 30.3,101 -8,29.9 -29.7,46.1 -60.2,49.4 -36.4,3.9 -67.8,-8.4 -88.8,-27.1 v 0"
       style="fill:#ffffff;fill-opacity:1;fill-rule:nonzero;stroke:none"
       id="path362" /></g></svg>
