<?xml version="1.0" encoding="UTF-8" standalone="no"?>
<!-- Created with Inkscape (http://www.inkscape.org/) -->

<svg
   version="1.1"
   id="svg1519"
   xml:space="preserve"
   width="769.13995"
   height="769.1333"
   xmlns:inkscape="http://www.inkscape.org/namespaces/inkscape"
   xmlns:sodipodi="http://sodipodi.sourceforge.net/DTD/sodipodi-0.dtd"
   xmlns="http://www.w3.org/2000/svg"
   xmlns:svg="http://www.w3.org/2000/svg"><defs
     id="defs1523" /><sodipodi:namedview
     id="namedview1521"
     pagecolor="#ffffff"
     bordercolor="#666666"
     borderopacity="1.0"
     inkscape:showpageshadow="2"
     inkscape:pageopacity="0.0"
     inkscape:pagecheckerboard="0"
     inkscape:deskcolor="#d1d1d1" /><inkscape:clipboard
     min="704.77998,4138.1334"
     max="1473.92,4907.2667"
     geom-min="704.77998,4138.1334"
     geom-max="1473.92,4907.2667" /><g
     id="g1525"
     transform="matrix(0.13333333,0,0,-0.13333333,-704.77998,1154.5333)"><path
       d="m 11054.4,5774.7 c 0,-1592.9 -1291.32,-2884.2 -2884.25,-2884.2 -1592.97,0 -2884.3,1291.3 -2884.3,2884.2 0,1593 1291.33,2884.3 2884.3,2884.3 1592.93,0 2884.25,-1291.3 2884.25,-2884.3"
       style="fill:#2f3031;fill-opacity:1;fill-rule:nonzero;stroke:none"
       id="path398" /><path
       d="m 8119.83,4752.8 c 817.21,0 1562.17,-94.9 2124.47,-250.6 h 56.3 c 222.7,372.1 350.8,807.3 350.8,1272.5 0,1370.4 -1110.88,2481.3 -2481.25,2481.3 -1370.41,0 -2481.29,-1110.9 -2481.29,-2481.3 0,-460.8 125.82,-892.3 344.74,-1262.1 557.68,149.5 1287.43,240.2 2086.23,240.2"
       style="fill:#ffffff;fill-opacity:1;fill-rule:nonzero;stroke:none"
       id="path400" /><path
       d="m 6878.14,3991.6 v 1.2 c 0,124.2 96.71,225.9 228.98,225.9 78.62,0 126.03,-21.2 171.58,-59.9 l -60.52,-73 c -33.69,28 -63.64,44.3 -114.18,44.3 -69.88,0 -125.41,-61.8 -125.41,-136 v -1.3 c 0,-79.9 54.91,-138.5 132.27,-138.5 34.95,0 66.14,8.7 90.47,26.2 v 62.4 h -96.71 v 83 h 189.68 v -189.7 c -44.92,-38.1 -106.69,-69.2 -186.56,-69.2 -136.01,0 -229.6,95.4 -229.6,224.6"
       style="fill:#ffffff;fill-opacity:1;fill-rule:nonzero;stroke:none"
       id="path402" /><path
       d="m 7386.69,4211.2 h 96.09 v -349.4 h 217.75 v -87.4 h -313.84 v 436.8"
       style="fill:#ffffff;fill-opacity:1;fill-rule:nonzero;stroke:none"
       id="path404" /><path
       d="m 7753.6,3961.6 v 249.6 h 96.09 v -247.1 c 0,-71.1 35.56,-107.9 94.22,-107.9 58.64,0 94.21,35.5 94.21,104.8 v 250.2 h 96.08 v -246.5 c 0,-132.2 -74.24,-197.1 -191.54,-197.1 -117.3,0 -189.06,65.5 -189.06,194"
       style="fill:#ffffff;fill-opacity:1;fill-rule:nonzero;stroke:none"
       id="path406" /><path
       d="m 8333.91,4122.6 h -132.89 v 88.6 h 361.88 v -88.6 H 8430 v -348.2 h -96.09 v 348.2"
       style="fill:#ffffff;fill-opacity:1;fill-rule:nonzero;stroke:none"
       id="path408" /><path
       d="M 8636.56,4211.2 H 8966 v -85.5 h -233.98 v -88.6 h 205.9 v -85.5 h -205.9 v -91.7 h 237.1 v -85.5 h -332.56 v 436.8"
       style="fill:#ffffff;fill-opacity:1;fill-rule:nonzero;stroke:none"
       id="path410" /><path
       d="m 9054.64,4211.2 h 88.6 l 204.65,-268.9 v 268.9 h 94.83 v -436.8 h -81.73 l -211.51,277.7 v -277.7 h -94.84 v 436.8"
       style="fill:#ffffff;fill-opacity:1;fill-rule:nonzero;stroke:none"
       id="path412" /><path
       d="m 8925.91,6762.5 c -373.2,0 -680.86,-279.6 -725.47,-640.7 v 534.7 c 401.17,3.1 725.47,329.2 725.47,731.1 -373.2,0 -680.86,-279.7 -725.47,-640.7 v 203.2 c 254.77,287.1 244.75,726.7 -30.29,1001.7 -275.02,-275 -285.04,-714.6 -30.3,-1001.7 v -203.3 c -44.57,361.1 -352.26,640.8 -725.47,640.8 0,-401.9 324.28,-728 725.47,-731.1 v -534.8 c -44.57,361.2 -352.26,640.8 -725.47,640.8 0,-401.9 324.28,-727.9 725.47,-731.1 v -534.7 c -44.57,361.1 -352.26,640.8 -725.47,640.8 v 0 c 0,-401.9 324.28,-728 725.47,-731.1 v -337.8 c 0,-33.6 13.64,-53.2 30.3,-53.2 16.66,0 30.29,19.6 30.29,53.2 v 337.8 c 401.17,3.1 725.47,329.2 725.47,731.1 v 0 c -373.2,0 -680.86,-279.6 -725.47,-640.7 v 534.6 c 401.17,3.2 725.47,329.2 725.47,731.1"
       style="fill:#2f3031;fill-opacity:1;fill-rule:nonzero;stroke:none"
       id="path414" /></g></svg>
