<?xml version="1.0" encoding="UTF-8" standalone="no"?>
<!-- Created with Inkscape (http://www.inkscape.org/) -->

<svg
   version="1.1"
   id="svg6241"
   xml:space="preserve"
   width="769.14667"
   height="769.14667"
   xmlns:inkscape="http://www.inkscape.org/namespaces/inkscape"
   xmlns:sodipodi="http://sodipodi.sourceforge.net/DTD/sodipodi-0.dtd"
   xmlns="http://www.w3.org/2000/svg"
   xmlns:svg="http://www.w3.org/2000/svg"><defs
     id="defs6245" /><sodipodi:namedview
     id="namedview6243"
     pagecolor="#ffffff"
     bordercolor="#666666"
     borderopacity="1.0"
     inkscape:showpageshadow="2"
     inkscape:pageopacity="0.0"
     inkscape:pagecheckerboard="0"
     inkscape:deskcolor="#d1d1d1" /><inkscape:clipboard
     min="3818.7466,361.45349"
     max="4587.8932,1130.6001"
     geom-min="3818.7466,361.45349"
     geom-max="4587.8932,1130.6001" /><g
     id="g6247"
     transform="matrix(0.13333333,0,0,-0.13333333,-3818.7466,4931.2132)"><path
       d="m 34409.2,34099.8 c 0,-1592.9 -1291.4,-2884.3 -2884.3,-2884.3 -1593,0 -2884.3,1291.4 -2884.3,2884.3 0,1593 1291.3,2884.3 2884.3,2884.3 1592.9,0 2884.3,-1291.3 2884.3,-2884.3"
       style="fill:#2f3031;fill-opacity:1;fill-rule:nonzero;stroke:none"
       id="path180" /><path
       d="m 31524.9,33082.4 c 820.8,0 1568.7,-95.6 2131.9,-252.5 221.8,371.5 349.3,805.8 349.3,1269.9 0,1370.4 -1110.9,2481.3 -2481.2,2481.3 -1370.4,0 -2481.3,-1110.9 -2481.3,-2481.3 0,-464.1 127.5,-898.4 349.3,-1269.9 563.2,156.9 1311.2,252.5 2132,252.5"
       style="fill:#ffffff;fill-opacity:1;fill-rule:nonzero;stroke:none"
       id="path182" /><text
       xml:space="preserve"
       style="font-style:normal;font-variant:normal;font-weight:bold;font-stretch:normal;font-size:712.682px;line-height:1.25;font-family:sans-serif;-inkscape-font-specification:'sans-serif, Bold';font-variant-ligatures:normal;font-variant-caps:normal;font-variant-numeric:normal;font-variant-east-asian:normal;letter-spacing:0px;word-spacing:0px;fill:#ffffff;fill-opacity:1;stroke:#ffffff;stroke-width:9.54485;stroke-opacity:1"
       x="26168.857"
       y="-37078.48"
       id="text2437"
       transform="scale(1.1552608,-0.86560541)"><tspan
         sodipodi:role="line"
         id="tspan6239"
         x="26168.857"
         y="-37078.48">LUPIN</tspan></text><path
       d="m 31494.56,34384.724 c -26.387,-26.734 -149.176,0 -149.176,0 h -937.118 c 0,0 -115.849,-25.232 -140.733,0 -23.192,23.546 0,133.066 0,133.066 v 270.71 c 0,0 -42.06,198.696 0,241.336 20.249,20.534 114.551,0 114.551,0 h 989.477 c 0,0 101.247,22.037 122.999,0 17.075,-17.301 0,-98.009 0,-98.009 v -403.426 c 0,0 25.048,-118.301 0,-143.677 z m 275.281,-22.184 c 0,199.293 -17.698,638.562 -25.255,836.041 -3.875,100.212 -20.128,354.295 -20.128,354.295 0,0 53.583,105.423 35.822,123.432 -20.06,20.285 -149.218,-21.526 -149.218,-21.526 0,0 -699.879,48.735 -926.65,48.735 -153.131,0 -592.896,-48.735 -592.896,-48.735 0,0 -111.519,63.712 -129.585,45.376 -14.977,-15.202 27.479,-131.357 27.479,-131.357 0,0 35.346,-239.174 35.346,-326.653 0,-211.099 -66.822,-721.779 -70.445,-963.2 -2.062,-138.629 35.099,-553.383 35.099,-553.383 0,0 -49.933,-111.85 -30.669,-131.356 18.024,-18.357 132.754,20.909 132.754,20.909 0,0 927.643,-43.632 1232.939,-43.632 64.782,0 247.369,43.632 247.369,43.632 0,0 165.1,-64.229 192.106,-36.898 25.501,25.918 -39.451,183.188 -39.451,183.188 0,0 45.383,452.821 45.383,601.132"
       style="fill:#000000;fill-opacity:1;fill-rule:nonzero;stroke:none;stroke-width:5.27325"
       id="path12" /><path
       d="m 32756.849,34033.251 c 14.765,23.334 18.847,47.233 19.649,71.679 0.369,11.391 12.275,33.369 -14.417,27.912 -19.86,-4.013 -54.795,12.176 -52.918,-31.082 1.44,-32.609 28.629,-46.14 47.686,-68.509 z m -158.53,-430.621 c 20.787,14.997 20.186,30.137 24.019,43.32 41.527,142.71 34.362,286.222 6.919,430.062 -1.787,9.476 2.146,23.318 -11.227,25.997 -12.028,2.368 -21.957,-6.017 -30.11,-14.523 -9.623,-9.992 -9.334,-23.445 -11.639,-36.153 -16.499,-90.326 -4.697,-180.546 2.163,-270.561 4.346,-57.474 12.625,-114.637 19.875,-178.142 z m -131.727,460.921 c 19.053,26.509 24.801,61.155 58.048,71.828 12.973,4.181 12.752,12.871 4.758,24.098 -56.625,79.574 -118.94,151.876 -207.551,198.776 -37.8,20.023 -69.154,21.278 -103.985,-1.028 -9.185,-5.869 -17.511,-15.594 -32.751,-13.595 -1.978,18.641 8.383,32.172 20.081,43.051 26.159,24.41 10.092,31.102 -12.731,41.159 -55.738,24.488 -111.582,7.93 -167.484,3.911 -11.226,-0.821 -22.332,-7.413 -33.992,-0.821 -3.707,17.96 20.561,18.576 20.845,38.7 -36.48,4.556 -73.615,9.227 -110.795,13.864 67.128,28.322 136.793,9.001 205.715,14.975 -62.7,32.568 -131.189,48.056 -192.474,83.861 60.436,17.961 119.534,0.264 181.167,-9.128 -8.241,22.802 -27.848,36.728 -32.978,63.649 55.533,-15.034 93.685,-52.833 143.37,-81.531 -9.646,42.603 19.606,63.201 38.663,89.193 14.396,19.737 32.072,19.284 51.166,9.603 17.26,-8.754 23.751,-18.152 3.355,-32.753 -5.579,-3.977 4.534,-13.141 8.943,-19.179 12.978,-17.655 29.267,-33.759 38.558,-53.25 24.326,-50.813 65.795,-67.951 121.122,-67.666 -17.138,26.798 -46.057,38.685 -64.371,61.244 -6.264,7.683 -18.372,14.48 -12.708,25.786 5.705,11.432 18.082,6.18 27.826,4.387 8.839,-1.582 17.508,-4.218 26.161,-6.755 61.571,-18.023 96.649,11.248 91.892,76.384 -1.255,17.401 -12.255,34.292 16.785,46.384 16.089,6.717 -47.106,179.232 -34.277,215.217 10.774,30.011 -9.47,57.716 -24.552,82.664 -13.473,22.185 -23.397,43.093 -13.842,68.879 2.842,7.684 3.771,14.48 -0.638,22.106 -24.368,42.266 -107.754,49.743 -135.908,10.916 -22.722,-31.313 -57.098,-29.314 -87.525,-29.563 -58.297,-0.553 -112.902,78.894 -97.414,134.675 5.479,19.775 17.513,20.128 32.426,14.09 15.076,-6.053 29.64,-13.43 47.601,-21.731 3.07,24.267 -10.009,38.379 -16.748,54.135 -13.098,30.691 -9.533,56.709 22.021,71.848 13.701,6.592 19.548,12.852 11.185,25.624 -12.149,18.604 -22.575,36.174 -20.866,60.621 1.028,14.834 -11.37,11.68 -21.979,5.5 -79.262,-46.078 -160.424,-10.172 -183.947,80.36 -2.469,9.576 -9.472,18.06 -14.992,26.713 -10.136,15.821 -10.547,27.806 9.001,37.325 24.779,12.113 27.99,26.118 -0.106,39.302 -7.087,3.359 -15.777,8.922 -13.346,16.933 12.609,42.043 -17.882,39.506 -42.846,44.347 -15.017,2.948 -32.441,4.699 -43.625,13.559 -17.719,14.047 -38.252,31.966 -36.976,56.276 1.545,29.003 36.354,17.507 52.279,33.738 -27.005,15.039 -55.596,27.089 -79.389,45.361 -21.938,16.889 -65.173,30.627 -27.501,72.544 3.956,4.387 2.411,10.568 -1.85,13.805 -26.615,20.081 -28.038,50.835 -34.198,79.611 -2.035,9.497 -7.229,19.115 -15.983,20.354 -37.509,5.29 -56.503,42.018 -91.538,52.28 -22.538,6.592 -39.841,23.15 -47.935,47.269 -7.208,21.426 -21.858,37.225 -38.273,52.469 -56.73,52.734 -114.098,105.297 -185.72,136.014 -33.222,14.211 -61.38,35.41 -92.815,51.019 -26.097,12.978 -39.095,33.269 -47.828,57.473 -14.38,39.819 -0.87,62.004 41.073,67.561 77.575,10.305 153.274,7.726 225.038,-30.79 20.639,-11.127 48.324,-7.683 70.941,-7.931 74.116,-0.786 142.362,-30.527 216.452,-34.956 69.212,-4.124 140.464,-25.502 203.579,-60.828 21.32,-11.885 35.943,-33.127 41.734,-58.543 2.203,-9.54 1.46,-20.972 13.489,-25.028 2.763,2.063 5.151,3.09 6.575,4.926 9.888,12.893 -15.804,38.23 10.278,42.144 25.665,3.913 55.222,5.806 74.874,-19.491 15.367,-19.711 24.638,-38.494 59.43,-37.63 30.834,0.823 45.255,-37.798 56.257,-67.197 7.513,-20.081 9.185,-42.186 38.926,-16.374 22.227,19.3 52.527,-5.21 62.336,-47.891 16.558,4.508 23.334,36.643 43.151,23.071 23.893,-16.437 50.47,-40.911 43.752,-72.365 -9.249,-43.258 6.16,-76.215 25.418,-110.861 6.491,-11.701 9.085,-21.446 24.493,-9.433 11.596,9.022 21.463,37.424 38.148,19.157 16.521,-18.066 41.052,-37.287 33.97,-69.586 -3.565,-16.068 -9.376,-32.008 -6.364,-48.651 9.66,-4.33 15.055,3.253 21.957,5.522 19.215,6.385 40.351,30.79 57.964,4.323 15.677,-23.646 24.431,-54.341 2.268,-79.574 -22.66,-25.849 -23.793,-33.844 9.845,-56.503 49.806,-33.511 79.305,-85.77 64.576,-154.016 -8.88,-40.926 35.985,-101.304 36.338,-102.993 8.3,-38.458 45.709,-48.551 67.087,-73.287 13.141,-15.182 -0.66,-42.582 -14.523,-60.501 -12.355,-15.925 -18.741,-32.609 -20.392,-52.98 -2.658,-33.285 -16.374,-61.281 -43.42,-83.382 -23.899,-19.468 -36.38,-42.539 0.369,-63.447 19.733,-11.227 10.61,-43.114 37.246,-50.671 19.442,-5.5 37.714,-15.451 59.466,-24.678 -13.368,-20.909 -30.506,-17.693 -44.369,-4.984 -26.551,24.305 -51.704,25.169 -76.874,0.527 -34.155,-33.474 -72.159,-24.162 -110.454,-11.638 -46.8,15.346 -33.411,-30.695 -46.611,-47.934 -13.657,-17.818 7.889,-117.478 20.641,-127.713 35.837,-28.798 9.37,-154.349 38.473,-179.207 31.149,-26.677 37.536,-70.266 43.404,-109.753 8.549,-57.367 29.889,-108.492 61.55,-156.136 15.572,3.19 12.171,15.899 13.141,25.027 10.525,97.634 41.342,189.094 81.651,277.875 4.161,9.165 9.887,20.497 7.911,29.187 -6.672,29.251 -0.808,43.32 32.673,44.143 19.569,0.475 23.482,21.426 25.006,38.627 1.708,19.606 8.137,31.924 31.185,28.734 22.122,-3.027 33.966,10.505 37.409,30.548 7.024,41.031 33.143,58.496 71.516,64.413 16.252,2.468 31.887,9.165 51.145,14.934 -1.318,-14.934 1.772,-28.365 14.565,-38.627 8.569,-6.798 -43.568,-32.853 -50.918,-46.858 -13.268,-25.196 -17.407,-53.144 -26.942,-79.305 -5.484,-15.14 -35.699,-57.742 -44.084,-77.97 -10.135,-24.51 -30.384,-40.885 -49.253,-58.744 -40.024,-37.927 -71.722,-80.439 -64.597,-140.997 2.062,-17.407 -5.748,-33.022 -15.941,-46.785 -10.015,-13.468 -21.03,-26.155 -31.392,-39.381 -9.355,-11.949 -26.635,-25.401 -16.663,-39.549 9.739,-13.801 25.722,2.367 37.798,7.066 81.694,31.761 163.077,63.585 251.467,72.033 21.631,2.057 42.165,10.773 61.982,20.697 86.392,43.3 180.589,47.523 274.211,53.909 9.66,0.68 20.887,1.545 29.024,-9.966 -119.309,-63.058 -237.319,-124.751 -376.318,-134.432 -81.529,-5.705 -164.731,-9.967 -243.192,-38.87 -11.469,-4.223 -25.665,-4.26 -34.297,-21.524 79.494,1.545 158.324,13.082 238.204,-22.865 -14.808,-10.569 -24.305,-5.764 -33.286,-3.977 -57.098,11.433 -112.652,2.168 -167.837,-12.297 -7.641,-2.014 -16.437,-5.004 -14.38,-14.622 2.204,-10.2 12.092,-8.86 19.178,-6.45 91.27,30.96 181.185,5.253 270.894,-7.968 33.908,-5.009 62.62,1.503 92.984,14.006 48.219,19.875 97.824,26.161 148.679,-0.928 -38.025,-8.406 -75.824,-18.293 -114.218,-24.616 -28.324,-4.698 -7.209,-16.337 -4.657,-26.303 -30.774,-4.081 -62.494,1.276 -91.027,-15.408 6.797,-18.13 31.929,-9.824 38.911,-29.662 -71.663,-6.592 -142.478,-13.12 -220.818,-20.355 34.114,-19.506 61.903,-37.424 85.691,-76.294 -58.481,26.508 -108.556,44.88 -161.246,54.689 -12.625,2.305 -25.091,6.117 -37.82,7.351 -63.896,6.181 -68.178,2.204 -78.788,-61.961 -3.38,-20.329 -6.612,-41.3 -14.233,-60.189 -48.84,-121.364 -48.286,-253.196 -80.232,-377.983 -24.822,-96.875 -54.341,-192.495 -83.117,-288.322 -18.973,-63.094 -39.941,-125.609 -60.849,-188.065 -9.065,-27.152 -71.211,-47.339 -94.734,-31.951 -12.978,8.548 -3.791,19.016 -1.255,27.664 17.881,60.811 34.091,122.255 55.532,181.785 43.937,121.945 37.43,246.257 25.628,371.85 -10.403,110.739 -20.249,221.741 -5.441,332.997 2.863,21.361 -1.978,33.099 -26.694,27.231 -16.025,-3.813 -32.483,-5.87 -48.757,-8.691"
       style="fill:#000000;fill-opacity:1;fill-rule:nonzero;stroke:none;stroke-width:5.27325"
       id="path14" /></g></svg>
