<?xml version="1.0" encoding="UTF-8" standalone="no"?>
<!-- Created with Inkscape (http://www.inkscape.org/) -->

<svg
   version="1.1"
   id="svg1843"
   xml:space="preserve"
   width="769.1333"
   height="769.14667"
   xmlns:inkscape="http://www.inkscape.org/namespaces/inkscape"
   xmlns:sodipodi="http://sodipodi.sourceforge.net/DTD/sodipodi-0.dtd"
   xmlns="http://www.w3.org/2000/svg"
   xmlns:svg="http://www.w3.org/2000/svg"><defs
     id="defs1847" /><sodipodi:namedview
     id="namedview1845"
     pagecolor="#ffffff"
     bordercolor="#666666"
     borderopacity="1.0"
     inkscape:showpageshadow="2"
     inkscape:pageopacity="0.0"
     inkscape:pagecheckerboard="0"
     inkscape:deskcolor="#d1d1d1" /><inkscape:clipboard
     min="2780.7599,2245.0268"
     max="3549.8932,3014.1734"
     geom-min="2780.7599,2245.0268"
     geom-max="3549.8932,3014.1734" /><g
     id="g1849"
     transform="matrix(0.13333333,0,0,-0.13333333,-2780.7599,3047.6399)"><path
       d="m 26624.2,19973 c 0,-1592.9 -1291.3,-2884.3 -2884.2,-2884.3 -1593,0 -2884.3,1291.4 -2884.3,2884.3 0,1593 1291.3,2884.3 2884.3,2884.3 1592.9,0 2884.2,-1291.3 2884.2,-2884.3"
       style="fill:#2f3031;fill-opacity:1;fill-rule:nonzero;stroke:none"
       id="path380" /><path
       d="m 23740,18978.1 c 826.3,0 1578.7,-96.9 2143.2,-255.7 214.8,367.2 338,794.5 338,1250.6 0,1370.4 -1110.9,2481.3 -2481.2,2481.3 -1370.4,0 -2481.3,-1110.9 -2481.3,-2481.3 0,-456.1 123.2,-883.4 338,-1250.6 564.5,158.8 1316.9,255.7 2143.3,255.7"
       style="fill:#ffffff;fill-opacity:1;fill-rule:nonzero;stroke:none"
       id="path382" /><path
       d="m 22891.9,18448.5 h 103.6 l 114.8,-184.7 114.8,184.7 h 103.6 v -436.8 h -95.5 v 285.1 l -122.9,-186.5 h -2.5 l -121.7,184.7 v -283.3 h -94.2 v 436.8"
       style="fill:#ffffff;fill-opacity:1;fill-rule:nonzero;stroke:none"
       id="path384" /><path
       d="m 23433.6,18448.5 h 329.4 v -85.5 h -234 v -88.6 h 205.9 v -85.5 H 23529 v -91.7 h 237.1 v -85.5 h -332.5 v 436.8"
       style="fill:#ffffff;fill-opacity:1;fill-rule:nonzero;stroke:none"
       id="path386" /><path
       d="m 24102.5,18194.5 -58.1,141.7 -58,-141.7 z m -101.1,257.1 h 88.6 l 187.2,-439.9 h -100.5 l -39.9,98 h -184.7 l -39.9,-98 h -98 l 187.2,439.9"
       style="fill:#ffffff;fill-opacity:1;fill-rule:nonzero;stroke:none"
       id="path388" /><path
       d="m 24390.1,18359.9 h -132.9 v 88.6 h 361.9 v -88.6 h -132.9 v -348.2 h -96.1 v 348.2"
       style="fill:#ffffff;fill-opacity:1;fill-rule:nonzero;stroke:none"
       id="path390" /><path
       d="m 22639.2,21203.1 c 136.7,-158.1 330.7,-70.5 330.7,-70.5 l 332.5,-359.7 25.1,-27.2 332.5,-359.7 c 0,0 -102.6,-186.6 44.3,-335.2 145.6,-147.3 412.9,-67.2 431.6,165.4 233.4,0.5 334.3,260.7 198.9,417.4 -136.7,158.1 -330.6,70.5 -330.6,70.5 l -332.6,359.8 -25,27.1 -332.6,359.8 c 0,0 102.6,186.4 -44.3,335.1 -145.5,147.3 -412.9,67.2 -431.7,-165.4 -233.3,-0.5 -334.2,-260.7 -198.8,-417.4"
       style="fill:#ffffff;fill-opacity:1;fill-rule:nonzero;stroke:none"
       id="path392" /><path
       d="m 22639.2,21203.1 c 136.7,-158.1 330.7,-70.5 330.7,-70.5 l 332.5,-359.7 25.1,-27.2 332.5,-359.7 c 0,0 -102.6,-186.6 44.3,-335.2 145.6,-147.3 412.9,-67.2 431.6,165.4 233.4,0.5 334.3,260.7 198.9,417.4 -136.7,158.1 -330.6,70.5 -330.6,70.5 l -332.6,359.8 -25,27.1 -332.6,359.8 c 0,0 102.6,186.4 -44.3,335.1 -145.5,147.3 -412.9,67.2 -431.7,-165.4 -233.3,-0.5 -334.2,-260.7 -198.8,-417.4 z"
       style="fill:none;stroke:#2f3031;stroke-width:83.1951;stroke-linecap:butt;stroke-linejoin:miter;stroke-miterlimit:10;stroke-dasharray:none;stroke-opacity:1"
       id="path394" /><path
       d="m 23493.4,21106.5 c -114.2,4.5 -110.1,-71 -110.1,-71 0,0 -74.9,10 -79.4,-104.2 0,0 -127.7,9.6 -80.1,-68.4 0,0 175.4,-301.3 197.1,-620.2 18.9,-276.8 67.8,-509.4 224.9,-681.5 267.7,-293.3 769.4,-274.9 1084.8,16.6 315.4,291.5 387.1,758.1 101.8,1080.2 -154.5,174.5 -387.3,237.1 -661.7,277.7 -316.2,46.7 -602.8,245.3 -602.8,245.3 -74.1,53.6 -74.5,-74.5 -74.5,-74.5"
       style="fill:#2f3031;fill-opacity:1;fill-rule:nonzero;stroke:none"
       id="path396" /></g></svg>
