<?xml version="1.0" encoding="UTF-8" standalone="no"?>
<!-- Created with Inkscape (http://www.inkscape.org/) -->

<svg
   version="1.1"
   id="svg1191"
   xml:space="preserve"
   width="769.1333"
   height="769.14667"
   xmlns:inkscape="http://www.inkscape.org/namespaces/inkscape"
   xmlns:sodipodi="http://sodipodi.sourceforge.net/DTD/sodipodi-0.dtd"
   xmlns="http://www.w3.org/2000/svg"
   xmlns:svg="http://www.w3.org/2000/svg"><defs
     id="defs1195" /><sodipodi:namedview
     id="namedview1193"
     pagecolor="#ffffff"
     bordercolor="#666666"
     borderopacity="1.0"
     inkscape:showpageshadow="2"
     inkscape:pageopacity="0.0"
     inkscape:pagecheckerboard="0"
     inkscape:deskcolor="#d1d1d1" /><inkscape:clipboard
     min="1742.7733,369.52016"
     max="2511.9066,1138.6668"
     geom-min="1742.7733,369.52016"
     geom-max="2511.9066,1138.6668" /><g
     id="g1197"
     transform="matrix(0.13333333,0,0,-0.13333333,-1742.7733,4923.1465)"><path
       d="m 18839.3,34039.3 c 0,-1593 -1291.3,-2884.3 -2884.3,-2884.3 -1592.9,0 -2884.2,1291.3 -2884.2,2884.3 0,1592.9 1291.3,2884.3 2884.2,2884.3 1593,0 2884.3,-1291.4 2884.3,-2884.3"
       style="fill:#2f3031;fill-opacity:1;fill-rule:nonzero;stroke:none"
       id="path158" /><path
       d="m 15928.3,33029.6 c 834,0 1592.5,-98.8 2158.7,-260.2 221.8,371.5 349.3,805.8 349.3,1269.9 0,1370.3 -1110.9,2481.3 -2481.3,2481.3 -1370.3,0 -2481.2,-1111 -2481.2,-2481.3 0,-458.8 124.7,-888.4 341.7,-1257 561,153.8 1301.2,247.3 2112.8,247.3"
       style="fill:#ffffff;fill-opacity:1;fill-rule:nonzero;stroke:none"
       id="path160" /><path
       d="m 14225.9,32527.7 h 103.6 l 114.8,-184.7 114.8,184.7 h 103.6 V 32091 h -95.5 v 285.1 l -122.9,-186.5 h -2.5 l -121.6,184.6 V 32091 h -94.3 v 436.7"
       style="fill:#ffffff;fill-opacity:1;fill-rule:nonzero;stroke:none"
       id="path162" /><path
       d="m 15112,32308.1 v 1.3 c 0,74.8 -54.9,137.2 -132.3,137.2 -77.4,0 -131,-61.1 -131,-136 v -1.2 c 0,-74.9 54.9,-137.3 132.3,-137.3 77.3,0 131,61.1 131,136 z m -363.8,0 v 1.3 c 0,124.1 98,225.8 232.8,225.8 134.7,0 231.4,-100.4 231.4,-224.6 v -1.2 c 0,-124.2 -97.9,-225.9 -232.7,-225.9 -134.8,0 -231.5,100.4 -231.5,224.6"
       style="fill:#ffffff;fill-opacity:1;fill-rule:nonzero;stroke:none"
       id="path164" /><path
       d="m 15298,32527.7 h 96 v -349.4 h 217.8 V 32091 H 15298 v 436.7"
       style="fill:#ffffff;fill-opacity:1;fill-rule:nonzero;stroke:none"
       id="path166" /><path
       d="m 15684.2,32527.7 h 96.1 v -349.4 h 217.7 v -87.3 h -313.8 v 436.7"
       style="fill:#ffffff;fill-opacity:1;fill-rule:nonzero;stroke:none"
       id="path168" /><path
       d="m 16051.1,32278.2 v 249.5 h 96.1 v -247.1 c 0,-71.1 35.6,-107.9 94.2,-107.9 58.7,0 94.2,35.6 94.2,104.8 v 250.2 h 96.1 v -246.4 c 0,-132.3 -74.2,-197.2 -191.5,-197.2 -117.3,0 -189.1,65.5 -189.1,194.1"
       style="fill:#ffffff;fill-opacity:1;fill-rule:nonzero;stroke:none"
       id="path170" /><path
       d="m 16499.8,32154.6 56.8,68 c 39.3,-32.4 80.4,-53 130.4,-53 39.3,0 63,15.6 63,41.2 v 1.2 c 0,24.4 -15,36.8 -88,55.5 -88,22.5 -144.8,46.8 -144.8,133.6 v 1.2 c 0,79.3 63.7,131.7 152.9,131.7 63.7,0 117.9,-20 162.2,-55.6 l -49.9,-72.3 c -38.7,26.8 -76.7,43 -113.5,43 -36.8,0 -56.2,-16.8 -56.2,-38 v -1.3 c 0,-28.7 18.7,-38.1 94.2,-57.4 88.6,-23.1 138.5,-54.9 138.5,-131 v -1.3 c 0,-86.7 -66.1,-135.4 -160.3,-135.4 -66.2,0 -132.9,23.1 -185.3,69.9"
       style="fill:#ffffff;fill-opacity:1;fill-rule:nonzero;stroke:none"
       id="path172" /><path
       d="m 16909.7,32308.1 v 1.3 c 0,124.1 93.6,225.8 227.8,225.8 82.3,0 131.6,-27.4 172.2,-67.4 l -61.2,-70.5 c -33.7,30.6 -68,49.3 -111.6,49.3 -73.7,0 -126.7,-61.1 -126.7,-136 v -1.2 c 0,-74.9 51.8,-137.3 126.7,-137.3 49.9,0 80.4,20 114.8,51.1 l 61.1,-61.7 c -44.9,-48.1 -94.8,-78 -179.1,-78 -128.5,0 -224,99.2 -224,224.6"
       style="fill:#ffffff;fill-opacity:1;fill-rule:nonzero;stroke:none"
       id="path174" /><path
       d="m 17359.6,32154.6 56.8,68 c 39.3,-32.4 80.5,-53 130.4,-53 39.3,0 63,15.6 63,41.2 v 1.2 c 0,24.4 -14.9,36.8 -87.9,55.5 -88,22.5 -144.8,46.8 -144.8,133.6 v 1.2 c 0,79.3 63.7,131.7 152.9,131.7 63.6,0 117.9,-20 162.2,-55.6 l -49.9,-72.3 c -38.7,26.8 -76.8,43 -113.6,43 -36.8,0 -56.1,-16.8 -56.1,-38 v -1.3 c 0,-28.7 18.7,-38.1 94.2,-57.4 88.6,-23.1 138.5,-54.9 138.5,-131 v -1.3 c 0,-86.7 -66.1,-135.4 -160.3,-135.4 -66.2,0 -132.9,23.1 -185.4,69.9"
       style="fill:#ffffff;fill-opacity:1;fill-rule:nonzero;stroke:none"
       id="path176" /><path
       d="m 17105.6,34981.8 -29.8,11.3 -395.6,-496.4 c -6.7,-9 -16.9,-13.7 -27.3,-13.7 -7,0 -14.1,2.2 -20.2,6.8 -15,11.2 -18.1,32.4 -6.9,47.5 l 416,523.7 2.8,65.7 c 7.1,163.2 -114.5,303.6 -277.1,319.9 l -99.1,9.9 -274.6,-725.3 c -5.1,-14.1 -18.1,-22.8 -31.9,-22.8 -3.9,0 -7.8,0.7 -11.7,2.1 -17.6,6.6 -26.7,26.5 -20.2,44.5 l 278.7,736.3 13.4,31.5 c -57.7,140.3 -213,221.3 -365.8,179.7 l -29.3,-8 -119,-864.1 c -2.2,-17.4 -16.8,-30.1 -33.6,-30.1 -1.5,0 -2.9,0 -4.4,0.2 -18.6,2.5 -31.7,19.8 -29.3,38.7 l 118.9,863.6 -1.6,9.1 -49.8,36.5 c -108.4,79.5 -255.9,79.5 -364.3,0 l -49.7,-36.4 -1.7,-9.4 113.4,-841.3 c 2.4,-18.9 -10.8,-36.2 -29.4,-38.6 -1.4,-0.2 -2.9,-0.3 -4.3,-0.3 -16.9,0 -31.5,12.7 -33.7,30.1 l -113.5,842 -29.1,8 c -158,43 -318.6,-45 -371.3,-194.1 l 18.1,-35.6 293.1,-759.4 c 6.4,-17.7 -2.6,-37.1 -20.2,-43.6 -3.9,-1.4 -7.8,-2.1 -11.7,-2.1 -13.9,0 -26.8,8.6 -31.9,22.3 l -292.3,757.6 -4.9,8 -90.2,-9 c -162.6,-16.3 -284.2,-156.7 -277.1,-319.9 l 2.5,-58 435.3,-553.4 c 11.2,-15 8.1,-36.3 -6.9,-47.5 -6.1,-4.6 -13.3,-6.7 -20.3,-6.7 -10.4,0 -20.6,4.7 -27.3,13.6 l -410.3,520 -33.9,-12.9 c -146.1,-55.1 -234.7,-203.6 -214,-358.3 11.6,-86.4 56.5,-164.8 124.9,-218.8 l 732.7,-576.8 -23.5,-70.7 c -18,-53.7 -17.8,-113.4 7,-164.3 40.7,-83.5 125.9,-127.9 211.5,-119.6 l 340.9,-1 340.8,1 c 85.6,-8.3 170.8,36.1 211.5,119.6 24.9,50.9 25,110.5 7.1,164.3 l -23.6,70.7 732.7,576.8 c 68.5,54 113.3,132.4 124.9,218.8 20.8,154.7 -67.9,303.2 -213.9,358.3"
       style="fill:#2f3031;fill-opacity:1;fill-rule:nonzero;stroke:none"
       id="path178" /></g></svg>
