<?xml version="1.0" encoding="UTF-8" standalone="no"?>
<!-- Created with Inkscape (http://www.inkscape.org/) -->

<svg
   version="1.1"
   id="svg1323"
   xml:space="preserve"
   width="769.13995"
   height="769.14667"
   xmlns:inkscape="http://www.inkscape.org/namespaces/inkscape"
   xmlns:sodipodi="http://sodipodi.sourceforge.net/DTD/sodipodi-0.dtd"
   xmlns="http://www.w3.org/2000/svg"
   xmlns:svg="http://www.w3.org/2000/svg"><defs
     id="defs1327" /><sodipodi:namedview
     id="namedview1325"
     pagecolor="#ffffff"
     bordercolor="#666666"
     borderopacity="1.0"
     inkscape:showpageshadow="2"
     inkscape:pageopacity="0.0"
     inkscape:pagecheckerboard="0"
     inkscape:deskcolor="#d1d1d1" /><inkscape:clipboard
     min="704.77998,2245.0268"
     max="1473.92,3014.1734"
     geom-min="704.77998,2245.0268"
     geom-max="1473.92,3014.1734" /><g
     id="g1329"
     transform="matrix(0.13333333,0,0,-0.13333333,-704.77998,3047.6399)"><path
       d="m 11054.4,19973 c 0,-1592.9 -1291.32,-2884.3 -2884.25,-2884.3 -1592.97,0 -2884.3,1291.4 -2884.3,2884.3 0,1593 1291.33,2884.3 2884.3,2884.3 1592.93,0 2884.25,-1291.3 2884.25,-2884.3"
       style="fill:#2f3031;fill-opacity:1;fill-rule:nonzero;stroke:none"
       id="path312" /><path
       d="m 6045.62,18700.5 c 561.91,155.1 1305.37,249.5 2120.78,249.5 815.43,0 1558.86,-94.4 2120.8,-249.5 h 13.4 c 222.7,372.1 350.8,807.3 350.8,1272.5 0,1370.4 -1110.9,2481.3 -2481.25,2481.3 -1370.41,0 -2481.29,-1110.9 -2481.29,-2481.3 0,-465.2 128.12,-900.4 350.88,-1272.5 h 5.88"
       style="fill:#ffffff;fill-opacity:1;fill-rule:nonzero;stroke:none"
       id="path314" /><path
       d="m 6851.3,18228.2 c 48.04,0 76.12,28.7 76.12,66.1 v 1.3 c 0,43 -29.95,66.1 -78,66.1 h -74.24 v -133.5 z m -172.21,220.3 h 178.44 c 104.2,0 167.22,-61.8 167.22,-151 v -1.3 c 0,-101.1 -78.62,-153.5 -176.58,-153.5 h -72.99 v -131 h -96.09 v 436.8"
       style="fill:#ffffff;fill-opacity:1;fill-rule:nonzero;stroke:none"
       id="path316" /><path
       d="m 7095.92,18448.5 h 329.44 v -85.5 h -233.97 v -88.6 h 205.89 v -85.5 h -205.89 v -91.7 h 237.09 v -85.5 h -332.56 v 436.8"
       style="fill:#ffffff;fill-opacity:1;fill-rule:nonzero;stroke:none"
       id="path318" /><path
       d="m 7764.82,18194.5 -58.02,141.7 -58.03,-141.7 z m -101.07,257.1 h 88.59 l 187.18,-439.9 h -100.45 l -39.93,98 h -184.69 l -39.93,-98 h -97.96 l 187.19,439.9"
       style="fill:#ffffff;fill-opacity:1;fill-rule:nonzero;stroke:none"
       id="path320" /><path
       d="m 8006.95,18448.5 h 88.61 l 204.65,-269 v 269 h 94.83 v -436.8 h -81.73 l -211.51,277.7 v -277.7 h -94.85 v 436.8"
       style="fill:#ffffff;fill-opacity:1;fill-rule:nonzero;stroke:none"
       id="path322" /><path
       d="m 8493.05,18198.9 v 249.6 h 96.08 v -247.1 c 0,-71.1 35.57,-108 94.22,-108 58.65,0 94.21,35.6 94.21,104.9 v 250.2 h 96.09 V 18202 c 0,-132.3 -74.25,-197.2 -191.55,-197.2 -117.3,0 -189.05,65.6 -189.05,194.1"
       style="fill:#ffffff;fill-opacity:1;fill-rule:nonzero;stroke:none"
       id="path324" /><path
       d="m 9073.35,18359.9 h -132.89 v 88.6 h 361.87 v -88.6 h -132.89 v -348.2 h -96.09 v 348.2"
       style="fill:#ffffff;fill-opacity:1;fill-rule:nonzero;stroke:none"
       id="path326" /><path
       d="m 9336.69,18075.4 56.78,68 c 39.31,-32.5 80.49,-53.1 130.4,-53.1 39.31,0 63.02,15.6 63.02,41.2 v 1.3 c 0,24.3 -14.98,36.8 -87.97,55.5 -87.98,22.4 -144.76,46.8 -144.76,133.5 v 1.2 c 0,79.3 63.64,131.7 152.87,131.7 63.63,0 117.92,-20 162.22,-55.5 l -49.91,-72.4 c -38.69,26.8 -76.75,43 -113.56,43 -36.82,0 -56.16,-16.8 -56.16,-38 v -1.3 c 0,-28.7 18.72,-38 94.22,-57.4 88.6,-23.1 138.51,-54.9 138.51,-131 v -1.2 c 0,-86.8 -66.14,-135.4 -160.35,-135.4 -66.14,0 -132.9,23.1 -185.31,69.9"
       style="fill:#ffffff;fill-opacity:1;fill-rule:nonzero;stroke:none"
       id="path328" /><path
       d="m 8879.79,20278.5 h 0.02 -0.02 c -7.77,19.8 -16.36,39.1 -25.72,58 -40.17,96 -113.28,294.8 -113.28,470 0,186 17.75,415.1 25.92,510.6 1.25,10.7 3.48,45.1 3.48,45.1 0.33,8 0.54,16.1 0.54,24.3 0,331.7 -268.9,600.6 -600.6,600.6 -331.68,0 -600.59,-268.9 -600.59,-600.6 0,-8.2 5.24,-67.3 30.78,-190.2 25.9,-124.7 43.15,-295.6 35.65,-410.4 -7.66,-117.1 -94.16,-326.1 -142.44,-434.9 -11.84,-22.7 -22.58,-46.2 -32.13,-70.2 v 0 0 c -34.53,-87 -53.52,-181.8 -53.52,-281.1 0,-421 341.27,-762.3 762.27,-762.3 420.97,0 762.24,341.3 762.24,762.3 0,98.4 -18.65,192.4 -52.6,278.8"
       style="fill:#2f3031;fill-opacity:1;fill-rule:nonzero;stroke:none"
       id="path330" /><path
       d="m 7977.72,19771.3 c 40.14,-87.2 23.91,-180.4 -36.3,-208.1 -60.18,-27.7 -141.53,20.5 -181.68,107.6 -40.14,87.2 -23.91,180.4 36.29,208.1 60.19,27.7 141.54,-20.5 181.69,-107.6"
       style="fill:#ffffff;fill-opacity:1;fill-rule:nonzero;stroke:none"
       id="path332" /><path
       d="m 7900.67,20152.6 c 23.95,-52 14.26,-107.5 -21.62,-124.1 -35.9,-16.5 -84.39,12.2 -108.34,64.2 -23.92,52 -14.25,107.5 21.64,124.1 35.88,16.5 84.4,-12.2 108.32,-64.2"
       style="fill:#ffffff;fill-opacity:1;fill-rule:nonzero;stroke:none"
       id="path334" /><path
       d="m 8151.88,19971.1 c 26.45,-57.4 15.77,-118.8 -23.88,-137 -39.63,-18.3 -93.19,13.5 -119.63,70.9 -26.45,57.4 -15.74,118.7 23.91,137 39.62,18.2 93.18,-13.5 119.6,-70.9"
       style="fill:#ffffff;fill-opacity:1;fill-rule:nonzero;stroke:none"
       id="path336" /></g></svg>
