<?xml version="1.0" encoding="UTF-8" standalone="no"?>
<!-- Created with Inkscape (http://www.inkscape.org/) -->

<svg
   version="1.1"
   id="svg3166"
   xml:space="preserve"
   width="769.14667"
   height="769.14667"
   xmlns:inkscape="http://www.inkscape.org/namespaces/inkscape"
   xmlns:sodipodi="http://sodipodi.sourceforge.net/DTD/sodipodi-0.dtd"
   xmlns="http://www.w3.org/2000/svg"
   xmlns:svg="http://www.w3.org/2000/svg"><defs
     id="defs3170" /><sodipodi:namedview
     id="namedview3168"
     pagecolor="#ffffff"
     bordercolor="#666666"
     borderopacity="1.0"
     inkscape:showpageshadow="2"
     inkscape:pageopacity="0.0"
     inkscape:pagecheckerboard="0"
     inkscape:deskcolor="#d1d1d1" /><inkscape:clipboard
     min="3818.7466,361.45349"
     max="4587.8932,1130.6001"
     geom-min="3818.7466,361.45349"
     geom-max="4587.8932,1130.6001" /><g
     id="g3172"
     transform="matrix(0.13333333,0,0,-0.13333333,-3818.7466,4931.2132)"><path
       d="m 34409.2,34099.8 c 0,-1592.9 -1291.4,-2884.3 -2884.3,-2884.3 -1593,0 -2884.3,1291.4 -2884.3,2884.3 0,1593 1291.3,2884.3 2884.3,2884.3 1592.9,0 2884.3,-1291.3 2884.3,-2884.3"
       style="fill:#2f3031;fill-opacity:1;fill-rule:nonzero;stroke:none"
       id="path180" /><path
       d="m 31524.9,33082.4 c 820.8,0 1568.7,-95.6 2131.9,-252.5 221.8,371.5 349.3,805.8 349.3,1269.9 0,1370.4 -1110.9,2481.3 -2481.2,2481.3 -1370.4,0 -2481.3,-1110.9 -2481.3,-2481.3 0,-464.1 127.5,-898.4 349.3,-1269.9 563.2,156.9 1311.2,252.5 2132,252.5"
       style="fill:#ffffff;fill-opacity:1;fill-rule:nonzero;stroke:none"
       id="path182" /><path
       d="m 32615.162,33751.143 c -218.502,162.749 -322.748,534.341 -186.413,698.128 128.171,154.02 277.801,109.795 416.17,10.745 209.086,-149.751 310.624,-540.503 188.737,-704.083 -89.615,-120.206 -260.899,-122.172 -418.494,-4.79"
       style="fill:#000000;fill-opacity:1;fill-rule:nonzero;stroke:none;stroke-width:6.07068"
       id="path12" /><path
       d="m 30645.839,33475.947 c -148.446,166.871 -348.566,341.312 -182.569,565.095 155.895,210.149 376.17,85.894 532.107,-33.74 177.926,-136.524 349.252,-333.062 188.167,-554.521 -155.561,-213.779 -359.852,-57.222 -537.705,23.166"
       style="fill:#000000;fill-opacity:1;fill-rule:nonzero;stroke:none;stroke-width:6.07068"
       id="path14" /><path
       d="m 30375.409,35318.259 c 240.101,-181.769 339.77,-554.854 197.321,-711.478 -134.429,-147.833 -284.49,-105.502 -418.992,-1.19 -215.63,167.254 -299.199,558.054 -154.474,705.626 129.76,132.249 263.813,78.773 376.145,7.042"
       style="fill:#000000;fill-opacity:1;fill-rule:nonzero;stroke:none;stroke-width:6.07068"
       id="path16-3" /><path
       d="m 31458.291,34759.562 c 209.037,-159.78 309.058,-554.824 172.589,-707.538 -122.907,-137.561 -264.123,-98.126 -393.483,-9.512 -225.089,154.255 -328.952,530.474 -199.689,698.364 96.657,125.591 270.643,133.27 420.583,18.686"
       style="fill:#000000;fill-opacity:1;fill-rule:nonzero;stroke:none;stroke-width:6.07068"
       id="path18-6" /><path
       d="m 31842.546,34750.007 c -229.738,171.211 -319.305,539.628 -179.206,704.957 119.137,140.622 256.656,110.153 386.132,20.938 214.064,-147.566 320.252,-532.957 193.405,-695.943 -125.493,-161.206 -269.932,-108.725 -400.331,-29.952"
       style="fill:#000000;fill-opacity:1;fill-rule:nonzero;stroke:none;stroke-width:6.07068"
       id="path20-7" /><path
       d="m 32754.29,34856.863 c -233.321,173.585 -336.783,554.04 -206.027,715.794 130.568,161.583 274.322,105.053 410.008,4.152 227.176,-168.917 309.58,-526.443 160.757,-691.754 -123.289,-136.876 -255.254,-100.19 -364.738,-28.192"
       style="fill:#000000;fill-opacity:1;fill-rule:nonzero;stroke:none;stroke-width:6.07068"
       id="path22-5" /><path
       d="m 31653.548,33320.86 c -118.664,101.137 -186.789,226.539 -51.953,379.113 133.834,151.525 511.643,146.146 718.022,-12.663 134.028,-103.183 217.597,-229.739 93.264,-389.568 -130.186,-167.465 -526.68,-157.934 -759.333,23.118"
       style="fill:#000000;fill-opacity:1;fill-rule:nonzero;stroke:none;stroke-width:6.07068"
       id="path24-3" /><path
       d="m 30925.188,35940.03 c 226.843,-181.884 325.54,-549.567 193.381,-697.108 -135.546,-151.367 -282.474,-97.465 -418.166,9.124 -208.346,163.671 -305.076,528.507 -171.922,677.263 135.832,151.579 281.054,94.472 396.707,10.721"
       style="fill:#000000;fill-opacity:1;fill-rule:nonzero;stroke:none;stroke-width:6.07068"
       id="path26-5" /><text
       xml:space="preserve"
       style="font-style:normal;font-variant:normal;font-weight:bold;font-stretch:normal;font-size:712.682px;line-height:1.25;font-family:sans-serif;-inkscape-font-specification:'sans-serif Bold';letter-spacing:0px;word-spacing:0px;fill:#ffffff;fill-opacity:1;stroke:#ffffff;stroke-width:9.54485;stroke-opacity:1"
       x="25932.021"
       y="-37078.48"
       id="text2437"
       transform="scale(1.1552608,-0.86560541)"><tspan
         sodipodi:role="line"
         id="tspan2435"
         style="font-style:normal;font-variant:normal;font-weight:bold;font-stretch:normal;font-size:712.682px;font-family:sans-serif;-inkscape-font-specification:'sans-serif Bold';fill:#ffffff;fill-opacity:1;stroke:#ffffff;stroke-width:9.54485;stroke-opacity:1"
         x="25932.021"
         y="-37078.48">SESAME</tspan></text></g></svg>
