<?xml version="1.0" encoding="UTF-8" standalone="no"?>
<!-- Created with Inkscape (http://www.inkscape.org/) -->

<svg
   version="1.1"
   id="svg2039"
   xml:space="preserve"
   width="769.14667"
   height="769.1333"
   xmlns:inkscape="http://www.inkscape.org/namespaces/inkscape"
   xmlns:sodipodi="http://sodipodi.sourceforge.net/DTD/sodipodi-0.dtd"
   xmlns="http://www.w3.org/2000/svg"
   xmlns:svg="http://www.w3.org/2000/svg"><defs
     id="defs2043" /><sodipodi:namedview
     id="namedview2041"
     pagecolor="#ffffff"
     bordercolor="#666666"
     borderopacity="1.0"
     inkscape:showpageshadow="2"
     inkscape:pageopacity="0.0"
     inkscape:pagecheckerboard="0"
     inkscape:deskcolor="#d1d1d1" /><inkscape:clipboard
     min="3818.7466,1295.0135"
     max="4587.8932,2064.1468"
     geom-min="3818.7466,1295.0135"
     geom-max="4587.8932,2064.1468" /><g
     id="g2045"
     transform="matrix(0.13333333,0,0,-0.13333333,-3818.7466,3997.6532)"><path
       d="m 34409.2,27098.2 c 0,-1593 -1291.4,-2884.3 -2884.3,-2884.3 -1593,0 -2884.3,1291.3 -2884.3,2884.3 0,1592.9 1291.3,2884.2 2884.3,2884.2 1592.9,0 2884.3,-1291.3 2884.3,-2884.2"
       style="fill:#2f3031;fill-opacity:1;fill-rule:nonzero;stroke:none"
       id="path100" /><path
       d="m 31524.9,29579.5 c -1370.4,0 -2481.3,-1111 -2481.3,-2481.3 0,-465.2 128.1,-900.5 350.9,-1272.6 h 49 c 559.6,152 1295.5,244.4 2101.7,244.4 806.2,0 1542,-92.4 2101.6,-244.4 h 8.5 c 222.7,372.1 350.8,807.4 350.8,1272.6 0,1370.3 -1110.9,2481.3 -2481.2,2481.3"
       style="fill:#ffffff;fill-opacity:1;fill-rule:nonzero;stroke:none"
       id="path102" /><path
       d="m 30359.2,25521.6 h 106.1 l 114.2,-307.6 114.2,307.6 h 103.5 l -176.5,-439.9 h -84.9 l -176.6,439.9"
       style="fill:#ffffff;fill-opacity:1;fill-rule:nonzero;stroke:none"
       id="path104" /><path
       d="m 30864.7,25521.6 h 329.4 v -85.5 h -234 v -88.6 h 205.9 v -85.4 h -205.9 v -91.8 h 237.1 v -85.4 h -332.5 v 436.7"
       style="fill:#ffffff;fill-opacity:1;fill-rule:nonzero;stroke:none"
       id="path106" /><path
       d="m 31263.4,25302 v 1.2 c 0,124.2 96.7,225.9 229,225.9 78.6,0 126,-21.2 171.6,-59.9 l -60.5,-73 c -33.7,28.1 -63.7,44.3 -114.2,44.3 -69.9,0 -125.4,-61.8 -125.4,-136 v -1.3 c 0,-79.8 54.9,-138.5 132.2,-138.5 35,0 66.2,8.8 90.5,26.2 v 62.4 h -96.7 v 83 h 189.7 v -189.7 c -45,-38 -106.7,-69.2 -186.6,-69.2 -136,0 -229.6,95.4 -229.6,224.6"
       style="fill:#ffffff;fill-opacity:1;fill-rule:nonzero;stroke:none"
       id="path108" /><path
       d="m 32022.8,25267.7 -58,141.6 -58.1,-141.6 z m -101.1,257 h 88.6 l 187.2,-439.8 H 32097 l -39.9,97.9 h -184.7 l -39.9,-97.9 h -98 l 187.2,439.8"
       style="fill:#ffffff;fill-opacity:1;fill-rule:nonzero;stroke:none"
       id="path110" /><path
       d="m 32264.9,25521.6 h 88.6 l 204.7,-268.9 v 268.9 h 94.8 v -436.7 h -81.7 l -211.5,277.6 v -277.6 h -94.9 v 436.7"
       style="fill:#ffffff;fill-opacity:1;fill-rule:nonzero;stroke:none"
       id="path112" /><path
       d="m 31407.6,26399.1 c 71.7,391.1 147.5,1813.6 -1345.1,2256.9 l 1345.1,-2256.9"
       style="fill:#2f3031;fill-opacity:1;fill-rule:nonzero;stroke:none"
       id="path114" /><path
       d="m 30052.4,28659.1 c -0.6,0.1 -1.3,0.3 -1.9,0.5 0,0 -570,-1994.2 1278.3,-2351.6 l -1276.4,2351.1"
       style="fill:#2f3031;fill-opacity:1;fill-rule:nonzero;stroke:none"
       id="path116" /><path
       d="m 31504.1,26501.2 c -56.2,410.8 -67.5,1895.6 1508,2286.3 l -1508,-2286.3"
       style="fill:#2f3031;fill-opacity:1;fill-rule:nonzero;stroke:none"
       id="path118" /><path
       d="m 33022.7,28790.2 c 0.7,0.1 1.3,0.3 2,0.5 0,0 498.7,-2103.8 -1443,-2388.1 l 1441,2387.6"
       style="fill:#2f3031;fill-opacity:1;fill-rule:nonzero;stroke:none"
       id="path120" /></g></svg>
